^C:\USERS\CHRIS\SOURCE\REPOS\GLORIOUSBATTLEGROUND\GLORIOUSBATTLEGROUND\DEBUG\MAIN.OBJ
/OUT:"C:\USERS\CHRIS\SOURCE\REPOS\GLORIOUSBATTLEGROUND\DEBUG\GLORIOUSBATTLEGROUND.EXE" /INCREMENTAL /NOLOGO KERNEL32.LIB USER32.LIB GDI32.LIB WINSPOOL.LIB COMDLG32.LIB ADVAPI32.LIB SHELL32.LIB OLE32.LIB OLEAUT32.LIB UUID.LIB ODBC32.LIB ODBCCP32.LIB /MANIFEST /MANIFESTUAC:"level='asInvoker' uiAccess='false'" /manifest:embed /DEBUG:FASTLINK /PDB:"C:\USERS\CHRIS\SOURCE\REPOS\GLORIOUSBATTLEGROUND\DEBUG\GLORIOUSBATTLEGROUND.PDB" /TLBID:1 /DYNAMICBASE /NXCOMPAT /IMPLIB:"C:\USERS\CHRIS\SOURCE\REPOS\GLORIOUSBATTLEGROUND\DEBUG\GLORIOUSBATTLEGROUND.LIB" /MACHINE:X86 DEBUG\MAIN.OBJ
^C:\USERS\CHRIS\DOCUMENTS\GLORIOUSBATTLEGROUND\GLORIOUSBATTLEGROUND\GLORIOUSBATTLEGROUND\DEBUG\MAIN.OBJ
/OUT:"C:\USERS\CHRIS\DOCUMENTS\GLORIOUSBATTLEGROUND\GLORIOUSBATTLEGROUND\DEBUG\GLORIOUSBATTLEGROUND.EXE" /INCREMENTAL /NOLOGO KERNEL32.LIB USER32.LIB GDI32.LIB WINSPOOL.LIB COMDLG32.LIB ADVAPI32.LIB SHELL32.LIB OLE32.LIB OLEAUT32.LIB UUID.LIB ODBC32.LIB ODBCCP32.LIB /MANIFEST /MANIFESTUAC:"level='asInvoker' uiAccess='false'" /manifest:embed /DEBUG:FASTLINK /PDB:"C:\USERS\CHRIS\DOCUMENTS\GLORIOUSBATTLEGROUND\GLORIOUSBATTLEGROUND\DEBUG\GLORIOUSBATTLEGROUND.PDB" /TLBID:1 /DYNAMICBASE /NXCOMPAT /IMPLIB:"C:\USERS\CHRIS\DOCUMENTS\GLORIOUSBATTLEGROUND\GLORIOUSBATTLEGROUND\DEBUG\GLORIOUSBATTLEGROUND.LIB" /MACHINE:X86 DEBUG\MAIN.OBJ
